<svg xmlns="http://www.w3.org/2000/svg" baseProfile="full" color-rendering="optimizeQuality" height="400.0" preserveAspectRatio="xMidYMid meet" version="1.1" viewBox="0 0 264.0 400.0" width="264.0"><style type="text/css"><![CDATA[
.lane.odd rect {
	fill: #ddd;
}
.icons .icon.category text.icon-text-inner tspan {
	text-anchor: start;
}
.lane.even rect {
	fill: none;
}
.icon.CategoryGroup .template-color {
	fill: #5914fc;
}
.grid .line {
	stroke: #999;
	stroke-dasharray: 5px 5px;
	stroke-width: 1px;
}
.arrow .option rect {
	fill: #fff;
}
.icons .icon text.icon-text-responsible {
	font-size: 9px;
}
.arrow .line, .arrow .option {
	fill: none;
	stroke: #777;
	stroke-width: 1px;
}
.icons .icon text.icon-text-responsible tspan {
	fill: #777 !important;
	text-anchor: middle;
}
.icon.CategoryItem .template-color {
	fill: #5914fc;
}
.icon.category text.icon-text-number {
	fill: #ffffff !important;
	font-size: 12px;
	text-anchor: middle;
}
.arrow .head {
	fill: #777;
}
.icons .icon.has-link text.icon-text-inner tspan, .icons .icon.has-link text.icon-text-number {
	fill: #0000ff;
}
.icons .icon.no-children tspan {
	fill: #666;
}
.icons .icon.no-category text.icon-text-inner tspan {
	text-anchor: middle;
}
text {
	font-size: 9px;
	font-family: 'Noto Sans', sans-serif;
}
.assistant .line {
	stroke-dasharray: 5px 5px;
}
.arrow .option text {
	fill: #000;
	stroke-width: 0px;
}
]]></style><g class="arrows"><g class="arrow"><path class="line" d="M 27.0 100.0 L 27.0 100.0"/></g><g class="arrow"><path class="line" d="M 27.0 50.0 L 27.0 250.0"/></g><g class="arrow"><path class="line" d="M 159.0 100.0 L 159.0 100.0"/></g><g class="arrow"><path class="line" d="M 159.0 50.0 L 159.0 350.0"/></g></g><g class="icons"><g class="icon CategoryGroup category Application" id="icon_f5e597ad-512e-cf93-930f-1a316fd0f028" transform="translate(0, 0)"><svg xmlns="http://www.w3.org/2000/svg" data-guid="f5e597ad-512e-cf93-930f-1a316fd0f028" height="80.0" preserveAspectRatio="xMidYMid meet" version="1.1" viewBox="15.0 15.399999618530273 149.1999969482422 69.0999984741211" width="105.60000000000001" x="13.199999999999998" y="9.999999999999998">
  <path class="template-color" d="M 24.1 15.5 C 19.2 15.5 15 19.8 15 24.7 L 15 75.2 C 15 80.1 19.2 84.4 24.1 84.4 L 53.9 84.4 L 53.9 15.4 L 24.1 15.4 Z" fill="red"/>
  <path d="M 155.1 15.5 L 54 15.5 L 54 84.5 L 155.1 84.5 C 160 84.5 164.2 80.2 164.2 75.3 L 164.2 24.7 C 164.2 19.8 159.9 15.5 155.1 15.5 Z" fill="#fff" stroke="#333" stroke-width=".1"/>
  
  <text class="icon-text-number" style="white-space: pre;" x="34" y="65">1</text>
<svg xmlns="http://www.w3.org/2000/svg" class="template-icon-insert" height="20" preserveAspectRatio="xMidYMid meet" viewBox="8.5 8.100000381469727 15.0 15.0" width="23" x="23" y="25"><path d="M15 8.1h2v15h-2v-15z" fill="#fff"/><path d="M8.5 14.6h15v2h-15v-2z" fill="#fff"/><path d="M10.2 20.2L20.8 9.6l1.4 1.4-10.6 10.6-1.4-1.4z" fill="#fff"/><path d="M10 11l1.4-1.4L22 20.3l-1.4 1.4L10 11z" fill="#fff"/></svg></svg><text class="icon-text-inner"><tspan dy="-4.5" x="48.4" y="53.0">Application</tspan><tspan dy="4.5" x="48.4" y="53.0">group</tspan></text></g><g class="icon CategoryItem category Application_param" id="icon_13c6ba38-9c29-4b58-e276-0df3787fd182" transform="translate(0, 100)"><svg xmlns="http://www.w3.org/2000/svg" data-guid="13c6ba38-9c29-4b58-e276-0df3787fd182" height="80.0" preserveAspectRatio="xMidYMid meet" version="1.1" viewBox="15.0 15.399999618530273 149.1999969482422 69.0999984741211" width="105.60000000000001" x="13.199999999999998" y="9.999999999999998">
  <path class="template-color" d="M 24.1 15.5 C 19.2 15.5 15 19.8 15 24.7 L 15 75.2 C 15 80.1 19.2 84.4 24.1 84.4 L 53.9 84.4 L 53.9 15.4 L 24.1 15.4 Z" fill="red"/>
  <path d="M 155.1 15.5 L 54 15.5 L 54 84.5 L 155.1 84.5 C 160 84.5 164.2 80.2 164.2 75.3 L 164.2 24.7 C 164.2 19.8 159.9 15.5 155.1 15.5 Z" fill="#fff" stroke="#333" stroke-width=".1"/>
  
  <text class="icon-text-number" style="white-space: pre;" x="34" y="65">1</text>
<svg xmlns="http://www.w3.org/2000/svg" class="template-icon-insert" height="20" preserveAspectRatio="xMidYMid meet" viewBox="8.199999809265137 8.09999942779541 15.600000381469727 15.600000381469727" width="23" x="23" y="25"><circle cx="16" cy="15.9" fill="#fff" r="7.8"/></svg></svg><text class="icon-text-inner"><tspan dy="0.0" x="48.4" y="53.0">Application 1</tspan></text></g><g class="icon CategoryItem category Application_param" id="icon_b4cb5517-ea5f-382a-f669-99887ac1fe80" transform="translate(0, 200)"><svg xmlns="http://www.w3.org/2000/svg" data-guid="b4cb5517-ea5f-382a-f669-99887ac1fe80" height="80.0" preserveAspectRatio="xMidYMid meet" version="1.1" viewBox="15.0 15.399999618530273 149.1999969482422 69.0999984741211" width="105.60000000000001" x="13.199999999999998" y="9.999999999999998">
  <path class="template-color" d="M 24.1 15.5 C 19.2 15.5 15 19.8 15 24.7 L 15 75.2 C 15 80.1 19.2 84.4 24.1 84.4 L 53.9 84.4 L 53.9 15.4 L 24.1 15.4 Z" fill="red"/>
  <path d="M 155.1 15.5 L 54 15.5 L 54 84.5 L 155.1 84.5 C 160 84.5 164.2 80.2 164.2 75.3 L 164.2 24.7 C 164.2 19.8 159.9 15.5 155.1 15.5 Z" fill="#fff" stroke="#333" stroke-width=".1"/>
  
  <text class="icon-text-number" style="white-space: pre;" x="34" y="65">2</text>
<svg xmlns="http://www.w3.org/2000/svg" class="template-icon-insert" height="20" preserveAspectRatio="xMidYMid meet" viewBox="8.199999809265137 8.09999942779541 15.600000381469727 15.600000381469727" width="23" x="23" y="25"><circle cx="16" cy="15.9" fill="#fff" r="7.8"/></svg></svg><text class="icon-text-inner"><tspan dy="0.0" x="48.4" y="53.0">Application 2</tspan></text></g><g class="icon CategoryGroup category Application" id="icon_e01ed95a-e5e0-4f55-8e61-275aa0dd95b8" transform="translate(132, 0)"><svg xmlns="http://www.w3.org/2000/svg" data-guid="e01ed95a-e5e0-4f55-8e61-275aa0dd95b8" height="80.0" preserveAspectRatio="xMidYMid meet" version="1.1" viewBox="15.0 15.399999618530273 149.1999969482422 69.0999984741211" width="105.60000000000001" x="13.199999999999998" y="9.999999999999998">
  <path class="template-color" d="M 24.1 15.5 C 19.2 15.5 15 19.8 15 24.7 L 15 75.2 C 15 80.1 19.2 84.4 24.1 84.4 L 53.9 84.4 L 53.9 15.4 L 24.1 15.4 Z" fill="red"/>
  <path d="M 155.1 15.5 L 54 15.5 L 54 84.5 L 155.1 84.5 C 160 84.5 164.2 80.2 164.2 75.3 L 164.2 24.7 C 164.2 19.8 159.9 15.5 155.1 15.5 Z" fill="#fff" stroke="#333" stroke-width=".1"/>
  
  <text class="icon-text-number" style="white-space: pre;" x="34" y="65">2</text>
<svg xmlns="http://www.w3.org/2000/svg" class="template-icon-insert" height="20" preserveAspectRatio="xMidYMid meet" viewBox="8.5 8.100000381469727 15.0 15.0" width="23" x="23" y="25"><path d="M15 8.1h2v15h-2v-15z" fill="#fff"/><path d="M8.5 14.6h15v2h-15v-2z" fill="#fff"/><path d="M10.2 20.2L20.8 9.6l1.4 1.4-10.6 10.6-1.4-1.4z" fill="#fff"/><path d="M10 11l1.4-1.4L22 20.3l-1.4 1.4L10 11z" fill="#fff"/></svg></svg><text class="icon-text-inner"><tspan dy="0.0" x="48.4" y="53.0">Office 365</tspan></text></g><g class="icon CategoryItem category Application_param" id="icon_fbbc9fab-3c08-4b6e-9561-5894ec12a02f" transform="translate(132, 100)"><svg xmlns="http://www.w3.org/2000/svg" data-guid="fbbc9fab-3c08-4b6e-9561-5894ec12a02f" height="80.0" preserveAspectRatio="xMidYMid meet" version="1.1" viewBox="15.0 15.399999618530273 149.1999969482422 69.0999984741211" width="105.60000000000001" x="13.199999999999998" y="9.999999999999998">
  <path class="template-color" d="M 24.1 15.5 C 19.2 15.5 15 19.8 15 24.7 L 15 75.2 C 15 80.1 19.2 84.4 24.1 84.4 L 53.9 84.4 L 53.9 15.4 L 24.1 15.4 Z" fill="red"/>
  <path d="M 155.1 15.5 L 54 15.5 L 54 84.5 L 155.1 84.5 C 160 84.5 164.2 80.2 164.2 75.3 L 164.2 24.7 C 164.2 19.8 159.9 15.5 155.1 15.5 Z" fill="#fff" stroke="#333" stroke-width=".1"/>
  
  <text class="icon-text-number" style="white-space: pre;" x="34" y="65">1</text>
<svg xmlns="http://www.w3.org/2000/svg" class="template-icon-insert" height="20" preserveAspectRatio="xMidYMid meet" viewBox="8.199999809265137 8.09999942779541 15.600000381469727 15.600000381469727" width="23" x="23" y="25"><circle cx="16" cy="15.9" fill="#fff" r="7.8"/></svg></svg><text class="icon-text-inner"><tspan dy="0.0" x="48.4" y="53.0">Word</tspan></text></g><g class="icon CategoryItem category Application_param" id="icon_b1dc87a4-0c06-4a4f-ac82-8a0b8b848c63" transform="translate(132, 200)"><svg xmlns="http://www.w3.org/2000/svg" data-guid="b1dc87a4-0c06-4a4f-ac82-8a0b8b848c63" height="80.0" preserveAspectRatio="xMidYMid meet" version="1.1" viewBox="15.0 15.399999618530273 149.1999969482422 69.0999984741211" width="105.60000000000001" x="13.199999999999998" y="9.999999999999998">
  <path class="template-color" d="M 24.1 15.5 C 19.2 15.5 15 19.8 15 24.7 L 15 75.2 C 15 80.1 19.2 84.4 24.1 84.4 L 53.9 84.4 L 53.9 15.4 L 24.1 15.4 Z" fill="red"/>
  <path d="M 155.1 15.5 L 54 15.5 L 54 84.5 L 155.1 84.5 C 160 84.5 164.2 80.2 164.2 75.3 L 164.2 24.7 C 164.2 19.8 159.9 15.5 155.1 15.5 Z" fill="#fff" stroke="#333" stroke-width=".1"/>
  
  <text class="icon-text-number" style="white-space: pre;" x="34" y="65">2</text>
<svg xmlns="http://www.w3.org/2000/svg" class="template-icon-insert" height="20" preserveAspectRatio="xMidYMid meet" viewBox="8.199999809265137 8.09999942779541 15.600000381469727 15.600000381469727" width="23" x="23" y="25"><circle cx="16" cy="15.9" fill="#fff" r="7.8"/></svg></svg><text class="icon-text-inner"><tspan dy="0.0" x="48.4" y="53.0">Excel</tspan></text></g><g class="icon CategoryItem category Application_param" id="icon_9511885b-cc2c-4534-ad00-da742a528d0f" transform="translate(132, 300)"><svg xmlns="http://www.w3.org/2000/svg" data-guid="9511885b-cc2c-4534-ad00-da742a528d0f" height="80.0" preserveAspectRatio="xMidYMid meet" version="1.1" viewBox="15.0 15.399999618530273 149.1999969482422 69.0999984741211" width="105.60000000000001" x="13.199999999999998" y="9.999999999999998">
  <path class="template-color" d="M 24.1 15.5 C 19.2 15.5 15 19.8 15 24.7 L 15 75.2 C 15 80.1 19.2 84.4 24.1 84.4 L 53.9 84.4 L 53.9 15.4 L 24.1 15.4 Z" fill="red"/>
  <path d="M 155.1 15.5 L 54 15.5 L 54 84.5 L 155.1 84.5 C 160 84.5 164.2 80.2 164.2 75.3 L 164.2 24.7 C 164.2 19.8 159.9 15.5 155.1 15.5 Z" fill="#fff" stroke="#333" stroke-width=".1"/>
  
  <text class="icon-text-number" style="white-space: pre;" x="34" y="65">3</text>
<svg xmlns="http://www.w3.org/2000/svg" class="template-icon-insert" height="20" preserveAspectRatio="xMidYMid meet" viewBox="8.199999809265137 8.09999942779541 15.600000381469727 15.600000381469727" width="23" x="23" y="25"><circle cx="16" cy="15.9" fill="#fff" r="7.8"/></svg></svg><text class="icon-text-inner"><tspan dy="0.0" x="48.4" y="53.0">Powerpoint</tspan></text></g></g></svg>